21

18 30
22
1 28
0 19
1 0
16 7
13 21
6 16
13 15
0 5
5 19
16 27
1 2
13 23
0 2
13 6
4 10
3 8
8 15
11 8
13 2
12 10
1 26
2 14
428 150

20 32
7
5 29
18 26
5 25
7 19
13 0
5 4
0 7
57 40

6 39
32
3 8
4 7
3 29
5 15
2 13
4 20
3 35
1 4
5 29
0 23
0 34
3 16
2 1
2 11
3 3
1 27
4 18
1 37
5 37
2 29
5 16
0 28
3 29
3 17
3 37
4 27
2 16
2 32
5 31
0 14
2 18
4 1
497 63

30 1
5
2 0
11 0
0 0
12 0
28 0
171 118

31 33
37
16 25
2 13
21 20
15 16
2 27
23 10
14 1
30 18
13 16
10 8
14 25
25 10
12 4
2 15
3 32
10 1
3 20
21 11
8 32
29 14
8 20
26 26
16 5
2 3
30 25
11 24
24 10
23 29
20 25
3 13
14 0
8 19
9 12
30 9
13 12
19 30
30 8
312 159

35 7
13
27 0
7 0
29 0
33 4
23 0
6 2
22 0
0 2
11 1
6 5
2 2
23 0
7 2
293 153

21 34
9
20 0
6 11
16 17
15 20
20 15
2 16
16 8
5 21
3 0
396 5

19 31
33
4 24
1 30
9 23
17 27
12 5
17 9
14 28
18 24
6 18
17 28
5 16
6 18
14 13
18 0
16 14
11 23
7 28
3 14
3 18
1 1
13 9
9 19
18 24
4 8
0 28
16 7
2 7
3 17
3 15
3 18
10 3
5 4
5 18
272 71

28 36
21
21 11
18 16
5 24
2 15
16 17
15 20
8 29
26 6
23 29
6 2
0 6
16 24
5 23
8 28
4 14
7 27
24 24
7 34
8 13
14 26
2 3
369 177

35 21
13
18 20
19 17
30 8
9 14
19 0
12 19
5 0
32 9
5 14
1 18
13 11
12 4
28 7
357 169

23 17
25
9 0
16 8
0 6
22 8
5 14
13 12
22 14
12 12
20 15
1 4
16 9
11 10
21 10
19 4
2 1
5 16
2 8
1 7
12 13
2 2
5 3
10 4
1 14
7 11
1 7
281 115

34 1
35
3 0
20 0
14 0
16 0
12 0
10 0
2 0
27 0
33 0
31 0
5 0
25 0
31 0
33 0
26 0
15 0
30 0
8 0
28 0
7 0
33 0
21 0
20 0
10 0
16 0
8 0
25 0
16 0
33 0
17 0
19 0
29 0
14 0
3 0
2 0
4 6

23 6
38
5 1
17 2
1 0
3 0
4 5
21 2
21 2
8 2
0 0
9 4
20 2
7 4
17 0
13 2
16 1
9 4
22 2
21 1
5 3
6 5
5 3
21 1
19 0
4 1
15 4
20 4
3 5
18 5
18 0
13 5
20 0
15 5
3 1
20 1
19 1
3 0
4 3
12 3
156 179

19 27
36
3 8
7 5
0 12
14 22
16 3
15 11
15 4
14 8
15 3
17 25
14 14
15 15
18 21
8 6
12 6
10 20
4 23
18 25
5 13
4 19
15 4
17 4
3 23
6 1
12 12
12 14
15 14
6 11
10 19
16 19
11 11
10 16
0 12
9 19
1 3
3 17
151 105

26 5
26
1 1
16 2
23 4
17 4
14 4
13 2
2 2
12 4
25 2
17 4
19 0
24 4
5 4
9 3
13 1
2 2
11 3
19 4
5 2
20 0
13 3
17 3
10 2
9 0
9 2
0 3
25 157

23 48
6
21 36
2 17
15 1
4 36
19 47
8 43
338 79

13 3
23
1 0
0 0
4 0
4 0
8 0
5 2
8 1
0 0
12 0
0 1
5 0
9 0
7 0
2 2
5 0
9 0
12 0
3 0
10 0
10 2
11 1
0 2
5 2
12 29

19 35
36
11 17
7 23
6 29
1 26
15 13
2 14
17 33
15 33
12 30
13 19
11 6
7 12
0 17
3 8
10 5
10 5
1 11
16 5
3 29
14 7
8 11
13 2
1 12
17 14
3 25
8 11
18 33
8 23
11 5
4 22
6 27
0 16
13 22
0 15
5 6
1 34
147 181

29 42
24
23 33
15 20
7 22
22 31
25 5
23 29
4 27
20 3
12 34
28 20
3 8
20 28
27 9
17 11
8 34
16 39
17 37
5 10
12 11
2 1
25 2
16 31
4 2
21 3
380 4

5 12
31
2 9
3 10
4 3
3 8
0 7
0 1
4 6
0 9
3 2
3 4
3 6
2 8
2 7
0 1
3 4
3 5
4 8
3 8
2 10
2 1
0 2
3 0
2 0
3 7
1 8
2 11
1 9
1 9
0 4
0 11
3 4
301 38

9 42
7
0 7
2 41
0 19
5 13
3 3
3 26
1 37
177 50
