25

5 6
6
1 4
2 2
1 3
3 2
4 0
1 3
15 3

8 10
6
7 4
0 6
7 7
7 9
7 2
6 5
8 11

4 13
6
3 11
3 4
1 0
0 2
2 4
1 10
2 5

7 10
10
3 9
2 6
0 9
0 7
2 5
3 1
4 8
3 6
0 2
0 9
4 5

9 2
16
1 1
2 1
4 1
1 0
3 0
7 1
0 0
7 0
1 0
2 1
8 0
7 1
4 0
2 1
1 0
4 0
4 5

5 1
24
3 0
3 0
0 0
0 0
1 0
3 0
2 0
3 0
4 0
2 0
2 0
0 0
4 0
3 0
4 0
4 0
1 0
0 0
0 0
1 0
3 0
1 0
0 0
3 0
12 13

2 4
15
1 3
1 1
0 3
0 0
0 0
0 0
1 2
1 0
0 0
1 1
1 1
0 1
1 1
0 1
1 0
10 6

13 5
21
8 4
1 4
7 0
12 2
11 3
1 1
3 0
12 0
9 2
7 4
3 2
10 4
1 3
3 4
11 4
5 1
10 3
7 2
8 1
12 3
2 4
5 6

2 15
18
0 1
1 7
1 7
0 4
0 6
0 10
1 10
0 7
0 13
1 8
1 14
1 10
0 0
0 12
1 11
1 11
0 0
0 7
4 12

2 10
11
1 0
1 0
1 0
0 3
0 1
1 9
1 1
1 1
1 9
1 7
1 2
14 10

8 8
20
6 4
2 1
2 3
5 4
2 4
6 7
7 6
6 1
0 0
6 6
6 6
7 1
7 0
3 2
6 1
2 0
0 6
0 0
1 7
4 5
8 7

1 2
21
0 1
0 1
0 1
0 1
0 1
0 1
0 0
0 0
0 1
0 0
0 1
0 1
0 0
0 0
0 0
0 1
0 0
0 0
0 0
0 0
0 1
8 4

7 1
22
2 0
0 0
5 0
4 0
4 0
1 0
1 0
3 0
5 0
5 0
0 0
6 0
6 0
3 0
3 0
0 0
6 0
2 0
3 0
0 0
4 0
5 0
3 14

14 4
10
5 0
9 2
11 3
3 0
6 2
1 2
12 0
12 2
8 1
6 2
3 12

4 12
22
2 10
3 11
2 0
1 8
1 1
1 5
3 9
1 7
3 10
3 5
0 7
1 3
0 7
2 4
0 1
0 9
0 11
3 11
1 10
1 9
0 7
1 3
13 14

7 14
11
6 2
0 8
5 0
5 2
4 7
0 1
0 0
0 5
1 8
3 10
6 4
3 15

8 15
8
7 1
2 3
5 13
3 12
3 10
1 2
4 3
0 9
7 13

15 15
11
3 2
3 6
14 5
14 3
13 13
1 2
7 1
5 9
10 10
11 14
11 12
12 1

11 15
5
10 9
7 3
5 4
1 3
7 7
8 14

6 8
6
4 3
2 3
5 2
3 7
0 0
4 5
5 10

7 2
24
1 1
0 1
4 1
6 0
6 0
4 1
1 1
6 1
5 1
6 0
1 0
2 0
3 1
2 0
4 0
2 1
2 1
4 1
2 0
0 0
3 0
0 1
6 0
1 0
12 14

9 8
5
8 6
1 0
1 2
8 2
1 5
7 11

10 11
24
7 5
1 6
1 8
9 2
3 7
0 4
2 9
9 7
2 5
2 8
8 2
3 4
3 10
9 8
6 8
1 7
5 9
0 8
0 5
7 4
4 3
6 3
3 5
1 3
6 4

1 15
5
0 12
0 1
0 0
0 6
0 3
6 12

1 14
16
0 4
0 2
0 12
0 0
0 5
0 9
0 3
0 3
0 8
0 9
0 5
0 13
0 5
0 4
0 13
0 0
12 8
