*** Life<Cell> 10x6 ***

Generation = 0, Population = 8.
--0---
------
-0----
------
------
------
-0----
-000--
------
---0-0

Generation = 1, Population = 18.
-0-0--
-00---
0-0---
-0----
------
-0----
01-0--
0--10-
-00--0
--0---

Generation = 2, Population = 17.
010-0-
------
--10--
------
------
-100--
---1--
10--1-
-1----
--10-0

Generation = 3, Population = 30.
1-1--0
00-00-
-0*10-
--00--
-000--
0*--0-
0--*--
*-0--0
-*-000
--*1--

Generation = 4, Population = 18.
*1----
------
--.--0
-011--
--1---
-.-0-0
---*-0
*0-1-1
-*----
--*--0

Generation = 5, Population = 31.
.*1---
00---0
-0*10-
01**00
--*0-0
-.-1-1
010*--
*--*-*
-*-0--
--.10-

Generation = 6, Population = 32.
***0-0
1100--
01.*-0
1*..1-
0-.10-
0.0--*
---*0-
*0-*-.
-.---0
-0*-10

Generation = 7, Population = 30.
*..---
*-110-
1*.*0-
*...*-
--**--
1*-10*
-1-*1-
.1-*-.
0.00-1
01.-*-

Generation = 8, Population = 32.
.*.00-
*1**-0
*...10
*...*0
--*.00
**0*1*
---.--
**0.-.
1.1-0-
-**-*-

Generation = 9, Population = 29.
**.-1-
**..-1
*.*.-1
.*...1
--*.11
.*1.**
---.10
*.-*1.
*.--11
-**-.0

Generation = 10, Population = 28.
**.0--
..*.-*
*.*.1-
.***.-
-0*.-*
.*-...
010.*-
..0**.
*.1---
-*.1*1

Generation = 11, Population = 30.
.**-10
*.*.-.
....--
*...*1
01.*1.
..1*..
1*-.*0
*.1.*.
..*0-1
-*****

Generation = 12, Population = 28.
.**-*1
..**0.
.*..11
**.***
-*..-*
..*..*
-.0.*1
*.*...
...--*
0*...*

Generation = 13, Population = 28.
.**0**
....1.
**..*-
**.*..
-*.*-*
.***.*
1.-.*-
.*.***
*..-1.
1.....

Generation = 14, Population = 27.
..*-**
*...-.
*****1
...*..
-..*-.
**.*.*
-.0..1
**.*.*
**.-**
*.....

Generation = 15, Population = 22.
...-..
*...-.
******
.*....
0..*1.
.*.*..
-.-*.-
*..*.*
..*-**
**....

Generation = 16, Population = 26.
...-..
*.**1.
*.***.
.....*
-*.**.
...*..
1.0*.1
..**.*
*.*0**
.*....

Generation = 17, Population = 20.
...0..
..*.-.
..*..*
.*...*
0.***.
.*....
-*-..*
.....*
...1.*
.****.

Generation = 18, Population = 21.
...-..
..**-.
.**...
.*...*
-.***.
**.**.
1.0...
.....*
...*.*
..***.

*** Life<Cell> 5x8 ***

Generation = 0, Population = 25.
00-00-00
-000----
-0-0-000
--0000--
00-00000

Generation = 2, Population = 18.
-0-0-0**
0*0-----
-*--10--
1---**10
-*----0-

Generation = 4, Population = 19.
-*-0-***
*.*1-0--
1.-11-0-
--1-*.*-
-.-0*-*-

Generation = 6, Population = 16.
-*--1..*
*...----
*.-----*
-1-0*..*
1.0*.1**

Generation = 8, Population = 20.
1*1*-...
*...110-
..0**0-.
*-*-...*
-***.*.*

Generation = 10, Population = 13.
-.-.-*..
....1*-1
..-.*-1.
.*.1*...
1*.**...

Generation = 12, Population = 13.
-.-.1**.
....-.*1
..-..--.
***1*...
***.....

Generation = 14, Population = 12.
-.-.*..*
..*.*...
.*-*.0**
*.*1....
........

Generation = 16, Population = 15.
-.-*....
.**.***.
.*0.****
.**-..*.
........

Generation = 18, Population = 15.
-.1.*...
.**..**.
*.*....*
.***..**
..*.....

Generation = 20, Population = 20.
1******.
..**.*..
....**.*
.*.**.**
..**....

*** Life<Cell> 8x8 ***

Generation = 0, Population = 17.
---00--0
---0--00
--------
--------
000-----
-00-0--0
-------0
0--0--0-

Generation = 1, Population = 32.
--0-10-1
--01-01-
---0--00
000-----
11-00--0
-----001
00000--1
-00-00--

Generation = 2, Population = 36.
-010*-0-
-0--0--0
00010--1
-1100-0-
--011--1
--0-01-*
111--0-*
---0-100

Generation = 3, Population = 26.
0---*---
--01-0-1
1-1*10-*
----1--0
--1**--*
0--0---*
*-----0*
00------

Generation = 4, Population = 32.
-01-*--1
-0---1-*
---.*--*
0--0--0-
11*.*00*
10-1---*
*--0-01*
-10---00

Generation = 5, Population = 32.
0-*-.-0*
01--0--*
10-.*--*
1---1-10
**..*-1*
*-0*--0.
*1-1-1*.
-*1-----

Generation = 6, Population = 34.
10.0.01*
1--111-*
*-1**0-*
-1-0---1
*.*.*-*.
.-1*---.
*--*-**.
-**--10-

Generation = 7, Population = 29.
-1*1.--*
---***1*
*0*..--*
1--110-*
....*-..
.0-.-1-.
.-1*-**.
-**-0--0

Generation = 8, Population = 31.
1**-.0-*
1-0.**-*
*-*..--*
*--**1-.
...*.0*.
.--*-*-.
.1-*0**.
0**0----

Generation = 9, Population = 31.
-.*1*1-.
-1-.**-*
*-*..-0.
.1-*.--.
..**.1*.
.01*0.0.
**1.-**.
1*.--10-

Generation = 10, Population = 20.
-.*-.-1.
--0...1.
*-***--.
.--**1-.
.....**.
*--.1.-*
..-.-..*
-.*-0--0

Generation = 11, Population = 21.
-..1.1*.
11-..**.
.-*..-0.
.--..--.
...*..*.
.0-.-*-*
..1*-.**
-..--101

Generation = 12, Population = 20.
1..-*-*.
**-.*..*
.-...-1.
.-1..--.
......*.
.--*1*-*
..*.0...
-..00*1-

Generation = 13, Population = 25.
**.1.-..
**0...**
.0...0-.
.1-..--.
...****.
.--***0.
..*.-...
-..11**1

Generation = 14, Population = 15.
*..-.-..
..1...*.
.-...--.
.*1..-1.
..**..*.
.--...-.
..*.-..*
-..*-***

*** Life<Cell> 6x9 ***

Generation = 0, Population = 21.
--0-0----
0---00-0-
000--0---
-0-000-0-
-00-0-0--
0--0-----

Generation = 2, Population = 27.
-10--00--
*0--0-0--
-**-1-10-
-00**01--
-0-0-10-0
--0-0--0-

Generation = 4, Population = 24.
0---1*--0
.-1--1--0
-..111.--
-***.-.-1
--1*11---
00010--0-

Generation = 6, Population = 27.
0---*.11-
*---*1-1-
-**-1-*-0
-....1.1-
1*..**11-
*0-*--101

Generation = 8, Population = 22.
-*1-..*1-
*-*1..0*-
0..1.1.--
-....*.*1
1.*.**..-
.-1.0---*

Generation = 10, Population = 22.
-*1-.**1*
.*.-**0.*
-..*.*.--
-..*....*
1*.....*-
.-***--*.

Generation = 12, Population = 28.
***-...1.
*..-.*0*.
1.****.10
1.*.*.*..
*...*.*.0
.-***1*..

Generation = 14, Population = 26.
***1*....
*..**.0..
1***...1*
-***.....
.**...*.0
.-**.-**.

Generation = 16, Population = 21.
.******..
.***.*-..
-.....***
-......*.
.....**.0
.0...***.

Generation = 18, Population = 12.
.....**..
.**...-..
-....***.
-....*.*.
....**..-
.-....*..

*** Life<Cell> 7x7 ***

Generation = 0, Population = 7.
-------
-0--0--
-0-----
-------
---0-0-
-------
--0-0--

Generation = 2, Population = 15.
-1-----
--11--0
-----0-
-1--0--
--1000-
-------
0--0-10

Generation = 4, Population = 19.
-1-1-0-
0-..100
-*1-00-
-------
-0.-**-
-0--1--
-1-0-*-

*** Life<Cell> 10x10 ***

Generation = 0, Population = 3.
----0-----
----------
---0------
----------
----------
---------0
----------
----------
----------
----------

Generation = 2, Population = 12.
--010-0---
----------
-0--10----
---------0
---0------
-------0-0
----------
---------0
----------
----------

Generation = 4, Population = 10.
0--1----0-
---------0
----.--0--
----------
----1-----
-----0-0--
---0------
----------
----------
---------0

Generation = 6, Population = 33.
-1*1-0010-
-------1-0
0--0.1--11
-----0-1-0
--01--01--
---1-0-0-0
-0--11----
-----0-0-0
---0------
-------0--

Generation = 8, Population = 16.
-..*---**-
--1-0--.-*
0-1-*.1-..
----1--.--
---1*--.--
-1-.------
----..----
---------0
----1-----
----------

Generation = 10, Population = 26.
0*.*--1..0
1-.1*-1.-.
--.0..11..
-0--1-1.--
01-..--.--
--1.1----0
----..----
-0-----0-0
--0---0---
---------0

Generation = 12, Population = 36.
-***1*...-
*0...--*-.
-1.-****..
0--0-1..01
*--..-*.--
1-1.1-----
0110..0---
--00-1-0--
0-------0-
-0-------0

Generation = 14, Population = 39.
-**.1....-
.*..*01*1.
1.*-**.*.*
---0*.**-*
**-..0..--
--..-*0-00
-11-.*----
--00-1-0--
-0-1------
-01--0----

Generation = 16, Population = 47.
-********-
*....-1**.
-*.-*.**..
1*-**...-.
..*..*..1-
*1***.*1*-
-.--..01--
0-00-*001-
--0*------
10*01-----

Generation = 18, Population = 41.
-*****...1
*....-*.**
*..1*.*.*.
*.1.*...*.
.........-
.1.**....-
-.10*.-.10
--0-0.--.1
01-*-111--
.0.**--00-

*** Life<Cell> 7x6 ***

Generation = 0, Population = 23.
-00000
0-00-0
-0-00-
0--000
--0---
000-00
--0---

*** Life<Cell> 5x6 ***

Generation = 0, Population = 13.
-000--
---0-0
-0---0
0-00--
--0-00

Generation = 1, Population = 16.
01--00
---1-1
----01
-0-1--
001011

Generation = 2, Population = 18.
1*0-1-
000---
-0-01-
-10*0-
11-1-*

Generation = 3, Population = 7.
-.---0
------
-----1
-*-.--
*-1*1.

Generation = 4, Population = 11.
-.--1-
------
-0--1-
-*-*00
.1***.

Generation = 5, Population = 12.
-.-0-0
-0----
010-*-
0*0.-1
.-...*

Generation = 6, Population = 8.
-.0---
-1-101
----.-
-.-*-*
.1....

Generation = 7, Population = 8.
-.--10
0-0*-*
-1--.-
-.0.-.
.-....

Generation = 8, Population = 11.
1.0-*-
-11*0*
--00.1
-.-.-.
.-....

Generation = 9, Population = 8.
-.10*-
-*-.1*
----.*
-.0.-.
.-....

*** Life<Cell> 6x7 ***

Generation = 0, Population = 13.
0-0--00
---0---
-00---0
----0--
--0-0--
---00--

Generation = 1, Population = 23.
----011
000-00-
011-00-
-0-0100
-0-0-0-
---1-0-

Generation = 2, Population = 23.
0000-**
-1--11-
---011-
--0-*-1
01--0--
-00*-10

Generation = 3, Population = 21.
11-10**
-*-0-*-
-1-1---
0--0.0-
1-0-1--
---*0*1

Generation = 4, Population = 20.
*----**
-*--1*-
-*--1--
1--1.-1
*---*00
0--*1**

Generation = 5, Population = 23.
.----**
-*00-.-
-*1-*-0
*-0-.-*
*1-0.11
100**.*

Generation = 6, Population = 22.
.1010..
0*11-.-
-.*1.-1
*-1-*-*
.--1.**
-1-**.*

Generation = 7, Population = 21.
*-1*1..
1.-*-.0
-..-*1*
.-*-*0*
.1-*..*
1--**.*

Generation = 8, Population = 18.
.-***..
**-.1.1
0..-.*.
.-*1.1.
.-0...*
--0***.

Generation = 9, Population = 24.
.-****.
**-.*.-
1.*1.**
.0*****
.1-...*
-1-***.

*** Life<Cell> 6x9 ***

Generation = 0, Population = 20.
----00---
---0-0---
-000-00-0
--0--0-00
--0--000-
0--0-----

Generation = 1, Population = 23.
----1-0--
-0-10---0
011--1101
----0----
001-0----
-0--0000-

Generation = 2, Population = 27.
-0--*--00
-10*----1
1**-0*---
---01-000
11*---00-
-1-0---10

Generation = 3, Population = 29.
01--.001-
-*1.00--*
*..--*-0-
--01-0-11
**.000-10
-*0-0---1

Generation = 4, Population = 24.
1---*--*-
0.*.11-0*
...0-*-11
--1-1--*-
*..-1---1
-*101---*

Generation = 5, Population = 26.
*100*-0*-
1*..---1.
.**--*-*-
00-1*-0*1
...--0--*
-*---0-1.

Generation = 6, Population = 26.
**--.-1*0
-...11--*
...--*1.-
1-1**-1.-
***0-1-1*
0.1-11--.

*** Life<Cell> 8x5 ***

Generation = 0, Population = 20.
-0--0
0-0-0
0-00-
0--00
0--00
0----
-0-00
--00-

Generation = 2, Population = 21.
00---
*--1*
0-001
010--
--1--
----0
001--
-0*00

Generation = 4, Population = 23.
-*---
*011*
--0-1
0-*-1
10.1-
*-01-
--101
00.0-

Generation = 6, Population = 18.
-*01-
**.-*
--0*1
-*.-*
.*..-
*--*-
---0*
**.--

Generation = 8, Population = 21.
-.-*-
*..-*
11*.*
*..1*
*...1
*01.0
1*--*
..**-

*** Life<Cell> 9x10 ***

Generation = 0, Population = 14.
---0--0---
----------
----0-----
--0---0---
-0--------
-----0-0--
----------
---0----0-
-0-000----

Generation = 2, Population = 33.
-0-0-10-0-
--0---1---
-011------
0----1-10-
---00-----
--0--00010
---101----
-1----01--
--000-10--

Generation = 4, Population = 32.
-01-0.-0--
-----0.1--
0-..--1-1-
0-10--0.*-
----*-1---
-1-1------
-1-*-1----
--010-01--
00---1-010

Generation = 6, Population = 43.
-**0-.1*10
1--0--..00
*-.*--*1.-
--.-0-0..1
111-.-.-1-
1.-.-1-01-
1.-.1-0-00
1-*.--*-01
--11-1*01*

Generation = 8, Population = 48.
-*.-1*.*.0
*01-1-..0-
**.*01**.-
1-.1-1-.*1
--.*.1.0*0
-*-.-11*.1
1.-.-**-*-
*1*.-0.--.
-*1*1**0.*

Generation = 10, Population = 33.
0*.--....0
.-.-1-.*00
....-.*..-
*-.11-1.*-
--*.*1.-.*
-.-.-***.*
*.1.*..-.-
*...10.*-.
1**.-.*-*.

Generation = 12, Population = 30.
-..--....-
.-*11-*.0-
...*1...*-
*1..-*.*.-
-*..*1.1..
-.0*1*....
..1**..-*1
*.*.1-..-.
-*..*..-..

Generation = 14, Population = 31.
-..-*...*1
.-.*--.**-
*...1**..-
*-**-*...-
-*.*.*....
1*-.-.*.*.
.**...*-.*
.***1-..-.
1.*....-..

Generation = 16, Population = 22.
-..0**...*
.0***1...-
*.......*-
**..-..*.-
-..*...*..
..-.1..*..
.......1..
....*-*.-.
1......-..

Generation = 18, Population = 20.
-..-......
.****1...1
*..*.....1
**..1.*..-
**.......*
..-.-.....
.....*..*.
.....1*.-.
-......-..

*** Life<Cell> 7x10 ***

Generation = 0, Population = 25.
0-----000-
-0--0-000-
-0---0----
---0---00-
00---0----
-0---0-0--
--00-0-0-0

Generation = 2, Population = 31.
-00-1--*-1
--1-01-*-1
-*---00-0-
-0--10--*1
*0-1-----0
---1-0--11
--*-0--*-0

Generation = 4, Population = 26.
1--0.-1.-*
0**0--1.1.
1.00--*---
---0*---.-
*--.0-0---
---*1-1-..
-1.*-11.--

Generation = 6, Population = 36.
.10*.-*.0.
-***-*-.1.
..0*--.1*0
00--*---*-
*1-*01*-0-
-*1.111*..
11..-*1.--

Generation = 8, Population = 31.
.1**.0..*.
**.*0.-*1.
..-.0-*..-
00--*0-1.-
.*-*0.*1-1
1.**-1-*..
.-..-.1.0-

Generation = 10, Population = 30.
*-...-.**.
**..-.-.1.
*.0.0-...-
--10.*0..*
..-.0.**-1
1****1-.*.
.1**0.1.--

Generation = 12, Population = 25.
.1...-.**.
*...-.1*.*
*.-*0-...-
-11-..0*..
**-.-*..-*
.....**...
.1..-.1*11

Generation = 14, Population = 27.
.1...0*.*.
**.*1....*
*.-.--..**
-1*1..*..*
..-*-..**.
**...*.*.*
.1..0.-.-.

*** Life<Cell> 6x7 ***

Generation = 0, Population = 25.
000---0
0-00-00
000-0--
0-0---0
00-000-
0-0-00-

Generation = 2, Population = 18.
--000--
00-*-*-
--*--0-
--*00--
--0-*00
---1-0-

Generation = 4, Population = 21.
10*---1
**-.-.-
*0.-0*1
--.-011
1--1.*-
-0011--

Generation = 6, Population = 16.
1***1-1
.*1.-.-
.-.--.-
--*----
--1**.-
1--**1-

Generation = 8, Population = 22.
...**01
*.1.1*-
*-*0-*1
-1.----
**-.**-
-*0..*1

Generation = 10, Population = 19.
.....**
....1.-
*1.*1.*
1..-1-*
*.1...1
-****.*

Generation = 12, Population = 14.
....*..
..**.*-
.*.....
-.*0*-.
....*.1
-****..

Generation = 14, Population = 15.
..*.**.
..*.**-
.*.....
-**-.*.
.*....-
-****..

Generation = 16, Population = 12.
...**.*
.**...1
......*
-..-.*.
....*.-
-***...

Generation = 18, Population = 19.
..***..
..**.*1
....***
-..0.**
.**.*.-
-**.*..

*** Life<Cell> 7x7 ***

Generation = 0, Population = 24.
000--00
--00---
-0--0--
---0-00
-0000--
-0--000
0-0-00-

Generation = 2, Population = 26.
*---1*-
11-*0-1
1-0-00-
--0----
---*0-0
--10***
01--000

Generation = 4, Population = 23.
*-0--.1
..-.-0-
.--10*-
-1*-0*-
---.0--
11*****
-*-00-0

Generation = 6, Population = 20.
.--11.-
..1.1--
*1-.-.1
-..*-.-
-00*-1*
*.*....
-*100*-

Generation = 8, Population = 26.
.00.-*1
..1..-*
**-.*.1
-...**1
0*-*0**
*..*.**
-*.0-.*

Generation = 10, Population = 18.
.--***-
*....-.
.*-.**-
-*...*.
-*1**..
.*.....
1.**-*.

Generation = 12, Population = 17.
.1-*..-
.....1*
*.*****
1.....*
1.-.*..
*..*...
-*..-..

Generation = 14, Population = 12.
.1-...*
..*..1.
..*..*.
-.*....
-*1....
**.....
1...-..

Generation = 16, Population = 13.
.10....
.*.*...
....*..
-*.*...
1*-*...
*......
**..-..

Generation = 18, Population = 11.
.--....
...**..
.......
1..**..
1*-*...
*.*....
.*..-..

Generation = 20, Population = 11.
.--....
.......
.***...
*...*..
*.*.*..
*.*....
.*..-..

*** Life<Cell> 9x7 ***

Generation = 0, Population = 32.
-0-0--0
000--00
----0-0
---0000
0--0---
--00000
-000-00
0-00-0-
-0----0

Generation = 2, Population = 30.
-----0*
--*00*-
111-*-0
1-1--0-
0--01--
-0-00*0
---*-*-
-0----1
--0-000

Generation = 4, Population = 28.
01-1-0.
--.--**
1-.1*-0
-1*0--0
--0011-
0----.-
011.1.-
-0----*
0---*-0

Generation = 6, Population = 30.
**--0**
--*01.*
--.-*10
-.*----
*-0-1*-
*--*-*-
0.*.-*-
1--00-*
000-.--

*** Life<Cell> 5x10 ***

Generation = 0, Population = 16.
----00-00-
0-00---0-0
-------0-0
----0-----
--0--000--

Generation = 1, Population = 27.
0-0-11--1-
--11-00-01
0-000-01-1
--00--0--0
-0-0-1-10-

Generation = 2, Population = 25.
--10*--0*-
-0*----0--
--1-101*0-
0--1--10-1
0-01--0*1-

Generation = 3, Population = 25.
----.10-*0
01.--0--0-
0-*0*-*.1-
100*--*1--
1-1-01-.*-

Generation = 4, Population = 30.
00--.-1-*1
-**1-100--
--.1*0*.*1
*--.0-**0-
*0*11*-*.0

Generation = 5, Population = 23.
1--0.-*0**
-*.-0--10-
00.-.1...*
*-0.--..-1
*-*-**0*.-

Generation = 6, Population = 20.
--1-.1*1.*
0**------1
--*-.-...*
*01*0-..0*
.-.-.*-..0

Generation = 7, Population = 28.
1-*0.****.
1.*1-1010-
-0.-.-...*
.-**1-..1*
.0*1*.0.*1

*** Life<Cell> 10x5 ***

Generation = 0, Population = 12.
-0---
----0
00--0
----0
-----
-0--0
-----
--0--
0--0-
-0---

Generation = 1, Population = 26.
0-0-0
0--01
1100-
00-01
-0---
0-00-
-00-0
00---
----0
--00-

Generation = 2, Population = 24.
1--01
--0--
**-10
-10-*
01--0
---1-
0--0-
1----
000--
-011-

Generation = 3, Population = 27.
-0-1*
---0-
*.-*-
0*10*
1---1
-00*-
10010
--00-
-1---
--**0

Generation = 4, Population = 27.
1---*
000--
*.-.-
1.-1*
*1-0*
0-1.0
*1--1
10---
0-0-0
--**1

Generation = 5, Population = 27.
*-01.
1-101
*.0*0
-.1-*
**0-.
---.-
.--1*
*----
11101
00*.-

Generation = 6, Population = 23.
.---*
--*--
..1.1
-.-1*
.*-0.
001*0
.-0*.
*-0--
***-*
-1..1

Generation = 7, Population = 26.
.-01.
-0.0-
..*.*
-.--*
**0-.
11*.1
*-1.*
*0--0
*.*-.
-****

Generation = 8, Population = 24.
.-1-.
1-.1-
..*.*
1.-1.
*.-0.
**..*
.-*.*
*1001
*..-*
-***.

Generation = 9, Population = 29.
.0--.
-0*--
.**.*
**-**
*.01*
***.*
.1..*
*-1-*
*..0*
-***.

Generation = 10, Population = 22.
.1--.
11.11
....*
*.-..
..-*.
*...*
.*..*
*1-0*
*..-*
-****

Generation = 11, Population = 26.
**11.
*-**-
**.**
..-..
..0..
...**
.**.*
*--1*
*..0.
-****

Generation = 12, Population = 21.
*.*-.
.-..-
**.**
.*1*.
..-*.
.*..*
.**..
*---*
*..-.
-****

Generation = 13, Population = 31.
...1.
*1**1
**.**
**-..
.*-**
.*.*.
****.
*-11.
*.*0*
-***.

Generation = 14, Population = 20.
.*.**
**..-
....*
..1..
.*-**
.....
*...*
*1**.
*..-*
-*..*

Generation = 15, Population = 22.
***..
****-
.*...
..-.*
..0*.
...**
*.**.
*-***
*..-*
-....

Generation = 16, Population = 18.
*..*.
...*1
**.*.
..1*.
..1..
.*..*
.....
*-*.*
.*.-*
0....

Generation = 17, Population = 17.
...**
**.**
.*...
..-*.
.**..
.....
.*.*.
.1.*.
**.0.
-....

Generation = 18, Population = 20.
..***
**.**
**.**
.*-..
..*..
.*...
.....
.-.**
**.1.
0....

Generation = 19, Population = 22.
.**.*
*....
...**
**-*.
.**..
.....
.....
.1***
*****
1*...

*** Life<Cell> 6x9 ***

Generation = 0, Population = 19.
-00----00
-000----0
--0---0--
-0------0
00-----0-
-00--0--0

Generation = 2, Population = 26.
10-000-*-
1--*101--
--*------
-----01-0
*--0-11--
0-*-10100

Generation = 4, Population = 31.
--00*01*-
*0-**-*0-
11*---00-
1-1-1-1-0
*--01.*00
--.1.**--

Generation = 6, Population = 19.
*-**.-*.-
*-0.**.--
*..0--*--
-*.-*-10-
**--1*.--
--.....--

Generation = 8, Population = 17.
.1*.*-..-
.--...*1-
*.*---.-0
*..0.---*
..111*.--
--....*0-

*** Life<Cell> 7x6 ***

Generation = 0, Population = 2.
------
------
-0---0
------
------
------
------

Generation = 2, Population = 5.
-0---0
------
-----0
------
-0---0
------
------

Generation = 4, Population = 6.
-0---0
------
---0-0
------
------
------
-0---0

Generation = 6, Population = 8.
-0-0-0
------
---0-0
------
-0-0--
------
-0----

Generation = 8, Population = 3.
------
------
-0-0-0
------
------
------
------

*** Life<Cell> 10x6 ***

Generation = 0, Population = 27.
--00-0
-00000
0-00-0
--00--
---000
-00-0-
-00---
-0----
----0-
--00-0

Generation = 2, Population = 30.
-0-01-
0*-00-
-1-*--
11-*0-
0-1--*
10--*-
1---10
-*--10
-1----
0-*-10

Generation = 4, Population = 33.
-*001*
-*--0*
1-1.1-
111.*-
0010*.
*---.-
.*01.-
-.----
0*-000
01.1.*

Generation = 6, Population = 29.
1*-0**
-.1-**
*1*.-1
....*1
*-.-*.
.*--*0
..0*.0
-.-0*1
-*-00-
-1....

Generation = 8, Population = 21.
.*1-*.
1..-..
.1*.*1
..*.*1
.1*1*.
..-0.-
..-..-
0.--.-
1.00--
-*....

Generation = 10, Population = 26.
...1..
-..1**
...**-
.*.**1
..**..
..0-*-
.*1.*-
-.1-*-
*.**10
-**...

Generation = 12, Population = 22.
..***.
-.**..
.....-
....**
.....*
.*-*.1
.**..-
-*--.-
.**.**
0..***

Generation = 14, Population = 17.
......
-.*...
.....-
...*..
...*..
**1.**
*..*.-
-.*1*-
*....*
-..**.

Generation = 16, Population = 15.
......
-.....
.....-
......
**.*..
*.***.
*....-
-****1
..*..*
-.....

Generation = 18, Population = 12.
......
-.....
.....-
......
**..*.
*.*..*
*....-
-..**1
.*..*.
-.....

*** Life<Cell> 5x7 ***

Generation = 0, Population = 22.
00--000
000----
--0--0-
0000-0-
0000000

Generation = 1, Population = 18.
---01-1
-1-00-0
-0--010
-1--0--
-111-11

Generation = 2, Population = 18.
-00---*
0*--10-
0-0-1--
0---10-
0--*0**

Generation = 3, Population = 17.
--101-.
-.00-1-
-0---1-
-10-*--
111*1.*

Generation = 4, Population = 21.
-0-1*-.
-*--1*0
0100-*0
-*-0*-0
***.-*.

Generation = 5, Population = 14.
01-**-.
-.-0-.-
1----.1
0.--.-1
****-*.

Generation = 6, Population = 19.
1*-**0.
-*01-.0
*1-0-.*
-.00.-*
***.-..

Generation = 7, Population = 17.
**1**1.
0.-*-.1
*---1**
-.--.0.
.***-..

Generation = 8, Population = 18.
**-***.
-.-.1.*
.1--*.*
0*00.1*
..*.1..

Generation = 9, Population = 17.
..-***.
0*-.-.*
**--*.*
1.11.**
..*.-*.
