30

10 10
7
6 9
0 4
7 4
3 5
3 6
9 7
4 1
10 1

10 10
10
5 3
4 7
2 5
9 5
1 9
9 1
3 5
2 1
1 2
2 6
10 1

10 10
10
5 5
6 3
2 5
5 3
7 7
4 0
7 8
1 0
5 7
6 2
10 1

10 10
11
5 2
8 3
0 3
3 9
1 0
9 0
2 6
3 4
4 3
2 0
7 6
10 1

10 10
5
3 2
5 6
5 9
2 4
5 8
10 1

10 10
7
8 8
5 7
2 8
9 0
3 4
0 8
3 7
10 1

10 10
8
2 3
5 8
2 1
4 5
4 7
7 4
2 6
2 2
10 1

10 10
15
8 3
8 1
8 8
2 6
7 3
7 1
1 1
3 1
1 5
9 5
0 9
7 0
4 1
3 4
1 4
10 1

10 10
10
7 2
5 3
4 9
4 7
0 5
8 2
0 6
0 9
1 7
6 2
10 1

10 10
8
8 3
7 1
9 1
7 2
8 5
1 6
1 7
7 0
10 1

10 10
15
5 1
7 5
8 3
3 1
0 7
0 8
3 1
1 3
5 3
3 1
0 2
1 4
8 4
0 8
8 2
10 1

10 10
6
6 2
5 2
6 9
3 3
0 4
4 9
10 1

10 10
12
8 5
6 2
7 8
4 1
4 6
5 3
9 7
6 1
5 3
7 1
8 8
9 6
10 1

10 10
7
5 3
0 6
4 1
6 9
2 1
9 5
7 8
10 1

10 10
7
3 0
6 4
3 0
0 5
5 1
5 2
5 2
10 1

10 10
11
5 7
0 2
2 0
3 3
3 1
0 4
0 6
3 6
2 6
4 3
7 5
10 1

10 10
9
7 1
1 5
8 8
2 5
3 7
4 9
1 0
9 3
7 7
10 1

10 10
8
6 8
3 2
1 4
1 8
2 1
5 7
1 5
1 6
10 1

10 10
14
7 4
0 3
4 9
0 6
9 2
8 3
5 2
0 7
7 6
9 4
4 8
2 2
7 9
5 4
10 1

10 10
11
8 8
2 7
5 3
2 7
5 3
6 2
7 9
7 7
9 4
6 0
9 8
10 1

10 10
13
5 2
4 9
0 2
3 0
1 3
4 4
2 7
3 4
5 7
0 1
9 8
6 1
8 7
10 1

10 10
14
5 0
7 3
2 2
9 8
8 2
3 1
7 1
2 0
7 7
7 0
0 3
7 9
8 8
5 6
10 1

10 10
14
4 9
4 4
7 1
6 7
5 8
4 6
3 6
5 9
0 1
4 1
9 0
8 3
4 6
1 8
10 1

10 10
13
0 5
9 8
4 9
8 0
1 1
9 0
9 1
3 8
3 3
2 4
7 2
3 4
4 0
10 1

10 10
14
0 6
1 2
7 9
4 7
9 8
2 2
3 9
9 0
9 4
3 1
2 0
3 7
2 7
9 2
10 1

10 10
11
2 0
9 3
8 3
5 2
6 8
8 7
9 9
9 9
0 1
5 2
4 7
10 1

10 10
15
2 6
7 4
9 2
5 2
7 6
7 0
0 4
8 5
0 0
0 8
3 3
1 9
2 1
5 5
9 4
10 1

10 10
11
2 3
6 0
9 9
7 6
9 3
2 1
2 5
5 7
6 2
8 8
6 1
10 1

10 10
10
9 7
1 3
0 1
7 1
1 5
8 0
4 4
3 8
9 3
8 5
10 1

10 10
9
5 6
9 6
1 4
6 3
7 5
9 7
0 8
8 4
8 0
10 1
