*** Life<FredkinCell> 7x8 ***

Generation = 0, Population = 13.
-0----0-
0--0----
00--0---
---0----
-00----0
------0-
0-------

Generation = 3, Population = 25.
1--20--0
3-21---0
---20---
2-0---10
----010-
0-0-1---
0-000-0-

Generation = 6, Population = 29.
-20-1021
-2----2-
-23-10--
----111-
221-1-01
-03-20-1
--11-0--

Generation = 9, Population = 26.
----213-
5-3-12-1
-2--2-21
-0----1-
----22-2
-0-020-2
2-1--1-0

*** Life<FredkinCell> 6x10 ***

Generation = 0, Population = 17.
-----00---
0------00-
-------0--
0--0--0---
----000--0
---0--0-00

Generation = 2, Population = 33.
---0122-1-
--00-1---1
----00----
-110002001
--012-2102
00--0020--

Generation = 4, Population = 34.
-00-1440--
0-2---001-
---1-20--0
---20-4221
110-40-12-
--000040--

Generation = 6, Population = 35.
02-0346-1-
--4012-2--
10-3142--2
1322-1-4--
---26-33--
21-0-240--

Generation = 8, Population = 30.
24--56-1-1
----141--2
----3-42-2
1-----46-2
2-04-0--3-
43--2-6020

*** Life<FredkinCell> 5x5 ***

Generation = 0, Population = 14.
0-0--
0000-
0---0
0----
00000

Generation = 3, Population = 14.
10100
-1-31
-10--
-1020
-----

Generation = 6, Population = 13.
4311-
2-2-1
-4-00
-----
-2-01

Generation = 9, Population = 10.
54--0
-----
-50--
2-3-3
-32--

Generation = 12, Population = 13.
65-5-
-----
06-4-
2-3-3
-4245

*** Life<FredkinCell> 8x9 ***

Generation = 0, Population = 15.
------0--
0--------
-0----0--
-----0--0
--0--0-0-
---------
000--0-0-
--0------

Generation = 4, Population = 28.
-0---0012
0-2-1----
0-----233
-11-1-2--
11-3---0-
0-2------
---13----
1----10-0

Generation = 8, Population = 30.
-00-01-3-
--2---1-1
-0--02---
125-----1
--044-103
2----2--2
---35-1--
3---1---2

Generation = 12, Population = 37.
-11------
----223-3
1253--358
-36-24--5
-2-6-2-0-
22--3----
2217-423-
30---42-2

*** Life<FredkinCell> 8x6 ***

Generation = 0, Population = 20.
0-0-0-
0--0--
00000-
------
0-00-0
---00-
0-0---
---00-

Generation = 2, Population = 23.
-0-10-
001--0
-0----
0---1-
--2---
-01020
0--100
-00--1

Generation = 4, Population = 23.
-21-20
2-3--0
-20-2-
---11-
-0-0-1
-----0
0111--
0--1-3

Generation = 6, Population = 20.
1-1-4-
--3--2
0-----
00---0
10-21-
1--14-
--1-2-
-11---

Generation = 8, Population = 21.
--3---
-1-20-
23-1--
---21-
-03212
-12---
-132--
-31---

Generation = 10, Population = 25.
-3325-
-35-23
4-0-4-
-0-410
-0--3-
334---
1-3---
2--21-

Generation = 12, Population = 31.
--5-50
2373--
--224-
121-12
--435-
354261
-35---
4-1434

Generation = 14, Population = 20.
2-7-7-
4--3--
44444-
------
2-65-4
---48-
2-7---
---43-

Generation = 16, Population = 23.
-3-37-
438--4
-4----
2---3-
--8---
-654+2
2--431
-31--6

Generation = 18, Population = 23.
-58-91
6-+--4
-64-6-
---63-
-0-5-5
-----2
2484--
4--5-8

Generation = 20, Population = 20.
3-8-+-
--+--6
4-----
22---3
30-77-
5--5+-
--8-5-
-42---

*** Life<FredkinCell> 9x5 ***

Generation = 0, Population = 20.
-0-0-
-00--
-0--0
0-000
---0-
00---
-0--0
--0--
-0000

Generation = 1, Population = 28.
010-0
011-0
-10-1
-011-
-0-1-
1-000
-1-0-
-01--
011-1

Generation = 2, Population = 19.
-2--1
--2--
-2102
012--
-1---
--1-1
-2-1-
-1--0
12---

Generation = 3, Population = 20.
0--0-
-13--
----3
1---0
-20-0
-0-0-
030-0
--1--
2-1-1

Generation = 4, Population = 20.
----1
-24-0
02104
--21-
--111
----1
14-1-
---0-
--2--

Generation = 5, Population = 27.
-2002
---0-
13-1-
1-320
-2-2-
10102
25-2-
01-10
-2---

Generation = 6, Population = 24.
03-13
0----
-41--
2-4-1
03--1
----3
360-0
-2--1
-3201

Generation = 7, Population = 24.
-4-24
12400
15-14
3-5-2
-4-2-
--10-
471--
--1--
2----

Generation = 8, Population = 17.
-50--
----1
2---5
4---3
---3-
10--3
5-2--
--21-
-32--

Generation = 9, Population = 30.
06124
12402
35-1-
51--4
-41-1
-1---
673-0
0-321
24---

Generation = 10, Population = 22.
-723-
2-5--
46125
-2--5
-52-2
--1--
-8-21
-----
-5-01

*** Life<FredkinCell> 5x5 ***

Generation = 0, Population = 12.
--00-
-0--0
0-00-
0-000
---0-

Generation = 1, Population = 11.
--11-
--00-
10--0
1---1
0--1-

Generation = 2, Population = 9.
-0--0
0----
-1--1
----2
100--

Generation = 3, Population = 14.
--11-
-0---
--002
1-003
2-110

Generation = 4, Population = 13.
--220
0-0-0
1--1-
2-1-4
3--2-

Generation = 5, Population = 10.
00---
1-1-1
-10-2
-----
40---

Generation = 6, Population = 13.
-1--0
2-2-2
-2--3
2-1-4
511--

Generation = 7, Population = 10.
---21
-----
1-01-
3-2-5
---20

Generation = 8, Population = 13.
--232
2-2-2
2--2-
4-3-6
5--3-

Generation = 9, Population = 10.
01---
3-3-3
-20-3
-----
61---

Generation = 10, Population = 13.
-2--2
4-4-4
-3--4
4-3-6
721--

Generation = 11, Population = 10.
---33
-----
2-02-
5-4-7
---30

Generation = 12, Population = 13.
--244
4-4-4
3--3-
6-5-8
7--4-

Generation = 13, Population = 10.
02---
5-5-5
-30-4
-----
82---

Generation = 14, Population = 13.
-3--4
6-6-6
-4--5
6-5-8
931--

Generation = 15, Population = 10.
---45
-----
3-03-
7-6-9
---40

Generation = 16, Population = 13.
--256
6-6-6
4--4-
8-7-+
9--5-

Generation = 17, Population = 10.
03---
7-7-7
-40-5
-----
+3---

*** Life<FredkinCell> 6x10 ***

Generation = 0, Population = 20.
0-----0--0
--00----0-
0-0000----
--00------
-----0-000
-00-----0-

Generation = 2, Population = 31.
0--1-1010-
0100011---
00-00---1-
1--000----
0-0-1-0---
12--0-0-2-

Generation = 4, Population = 35.
2-03-1--21
23-02-100-
202-2--11-
100---001-
01-11-2---
14--202---

Generation = 6, Population = 27.
--2---11--
--002-32-0
-022--1-3-
--0---02-1
--13-121--
1-2--02---

*** Life<FredkinCell> 9x7 ***

Generation = 0, Population = 15.
---00-0
0-0----
-----0-
---0--0
---0---
---0---
---0000
0------
-------

Generation = 4, Population = 31.
1-22112
---01-1
-1-----
2-1-1--
---23-3
2-1----
101-2-1
0-011-1
----002

Generation = 8, Population = 23.
---3322
---1---
---3---
2--3--2
---33-3
4-51---
----3-2
---1--2
---2003

Generation = 12, Population = 32.
215--2-
4-1----
---4-1-
---3--4
0-2-4-5
6-922-2
2-3--3-
4-2-3--
1013204

*** Life<FredkinCell> 10x8 ***

Generation = 0, Population = 18.
--------
-00-00-0
--0--00-
-0------
--0-----
-----0--
--0--0--
----0---
0-------
-00---0-

Generation = 1, Population = 37.
-00-00-0
01--1-0-
-010--1-
0-0--00-
---0-0--
----010-
-0-0-10-
0-00----
--0-0-0-
-110-0-0

Generation = 2, Population = 39.
--1--10-
120-201-
0-21---0
-0100--0
0---0-0-
-0-01--0
--010--0
-0---0--
0----0--
02210-0-

Generation = 3, Population = 44.
0-20---0
--1031--
1-3-00-1
0121-0-1
-000---0
--0-21-1
-012--01
---0-100
1000-1--
----10-0

Generation = 4, Population = 33.
-----10-
-2214-1-
20---1-2
-2--01--
------0-
-0--320-
012--1-2
0-0---1-
2---0---
022-2---

Generation = 5, Population = 39.
-020-2-0
----5-2-
31-1021-
-3211--1
-----010
-1-043--
-2-2-2--
-0100---
---0110-
--3-30--

Generation = 6, Population = 36.
01-10-0-
1-216-3-
4-3-----
---2-102
--0-0---
02---4-1
0-2--30-
0----11-
-00--210
-2-1----

Generation = 7, Population = 46.
-22---10
-2-2--40
5-4102-2
0-2-12-3
0--0-01-
-30--50-
-2-204--
1---022-
--1-1-21
033-3000

Generation = 8, Population = 36.
0-3--2--
-3-3---1
61-21-1-
--3--304
1-0-01--
--10-6-1
-323150-
--1-13--
--2---3-
1-----1-

Generation = 9, Population = 44.
-2--0-10
1424-1--
7-4-2222
--4-1-15
---012--
0-2---0-
04-42-1-
---0--2-
20301-41
-33--020

Generation = 10, Population = 45.
-3---221
-535-24-
81-2-33-
0352----
1-012310
13-0--11
-52-3--2
----13--
3141225-
-----13-

*** Life<FredkinCell> 7x9 ***

Generation = 0, Population = 19.
-0-0----0
0--0---0-
0-----0--
--0-----0
---0---0-
--0-0-0-0
0-0----0-

Generation = 4, Population = 29.
20-110---
4-----000
23110--2-
1---0----
021----00
3--1--100
--2-1----

Generation = 8, Population = 22.
4-03-1-1-
------412
3---1-0-2
3-2-1---0
-------0-
------3-0
---31-1--

Generation = 12, Population = 31.
-214---22
--410-4-4
--2-51-5-
--3-----2
5-30301--
--5-0-520
--5-2-3-3

Generation = 16, Population = 21.
-3--2144-
--531----
----5---3
5---6----
---2-----
--6-1----
2-983-54-

Generation = 20, Population = 32.
7-2-21-52
---3--528
-555551-5
7-4-7---2
6362-2-0-
---1--9-1
------6-9

*** Life<FredkinCell> 8x10 ***

Generation = 0, Population = 23.
-0---0-0--
-----0-00-
0-----0---
--00------
----0-000-
----00--0-
----0--0-0
-0--0--0--

Generation = 1, Population = 46.
0-0-01-1--
00--010-10
-000----0-
0011---00-
--0-101--0
---011-01-
-0-0--010-
0-00100100

Generation = 2, Population = 37.
10----0--0
--0--210-1
011--00---
11---0-1--
0-1--1200-
-0--2-----
--0-00--1-
-011--1211

Generation = 3, Population = 44.
21----1-01
-0100--1-2
-2-001-0-0
2-1-0--2--
1--0---110
--003100--
-010-1--2-
0122--2-22

Generation = 4, Population = 39.
3--001-11-
-1-1---21-
-3---2---1
31--1-0---
201111-2-1
0----2--10
---1020-3-
123-1----3

Generation = 5, Population = 32.
--0--2---1
-2-2--1---
--10---0--
-2--2-----
31--2-2-12
1-0-3-----
-0-2131-40
2-422-2---

Generation = 6, Population = 32.
----0---1-
0--30----2
-32-----0-
-3--300200
---1----23
2--0------
0-------51
-253-03223

Generation = 7, Population = 34.
3---12-1--
---4-2--1-
--3--20-11
34--4-----
3112-12---
30013-----
1-1--31---
-3-4-1--3-

Generation = 8, Population = 32.
-1--2-----
0---0---2-
0-----1--2
--1--0--00
4-2--232--
41-242----
2-22--215-
--5--2-2-3

Generation = 9, Population = 48.
--0032--1-
1--41212--
133-0--013
-421410-1-
513--3-3-3
52----0-1-
30---3326-
236-2-333-

Generation = 10, Population = 40.
31114----1
2-1--3--22
-4---21-24
35--521-20
-----4----
63---21-2-
41---4-371
-47--2-4-3

Generation = 11, Population = 36.
--2-5----2
3-2--4-2-3
15---3--35
4-216-----
------3--3
--0-43203-
-2--1-3-8-
--8423-534

Generation = 12, Population = 38.
313----113
4234-5--2-
2630-41-4-
553-7-1-2-
5--2--4---
----------
4-2---4---
--9-343645

Generation = 13, Population = 35.
-2---21224
5----6----
3---0----5
66---2--30
6----4532-
--02------
--321-5-81
24+-4-4--6

Generation = 14, Population = 34.
--3-5----5
6----7-22-
---0-4---6
773--3----
7-322-----
63---3-0-0
4-43--6-9-
3--45-56-7

Generation = 15, Population = 35.
32-----2--
-234-8-333
-6----10--
---1-41--0
----34-3-3
740---2-3-
-25---7--1
44--6--74-

Generation = 16, Population = 45.
4--1-213-5
-3-5--14-4
37---4----
-73-7--231
713-4---24
85-24-30-0
43-3148-9-
5--4-4-85-

Generation = 17, Population = 46.
--32-32--6
64-618---5
48-0----4-
78--8-134-
---2-453-5
960-53-1-1
5--425--+-
6-+56559-7

Generation = 18, Population = 42.
4-4-5-3327
--37-----6
59-1041-5-
--31-4-4--
------6426
--1--43232
--5--6-3-1
7-+676-+5-

Generation = 19, Population = 36.
--52--4---
----18-437
6+-2-520--
7-4-85-541
---2-4--3-
-6225-4-43
53----8--2
--------6-

Generation = 20, Population = 45.
-263----27
64372----8
-+3--6-15-
88--961-52
7133-5---6
---3645---
6--42693+3
74----5+--

*** Life<FredkinCell> 7x8 ***

Generation = 0, Population = 18.
---000-0
0-------
0-------
0---0-00
----0--0
-00--0--
-0--00--

Generation = 4, Population = 29.
-0-102-0
10--30--
-1220--0
2--1412-
33---0-2
-01---10
----22--

Generation = 8, Population = 24.
--2-12--
------0-
------2-
34--6-4-
-32-3---
-0-13130
-42143-0

Generation = 12, Population = 35.
--3-2--0
-1136122
-234--31
56--746-
---2-328
104-4240
-4436---

*** Life<FredkinCell> 5x5 ***

Generation = 0, Population = 12.
000-0
-0---
--0-0
0-000
----0

Generation = 3, Population = 8.
-31--
1--0-
----1
-0--1
---0-

Generation = 6, Population = 10.
--41-
2-2-1
0--14
-----
--01-

Generation = 9, Population = 16.
2752-
3-3-2
-3-25
3-3-5
-3-22

*** Life<FredkinCell> 5x10 ***

Generation = 0, Population = 14.
0--0-0-0--
0-----0---
---------0
-0-000-000
----------

Generation = 1, Population = 28.
100---0-0-
10-0-----0
00-00000-1
0--1-1-1--
-0-000-000

Generation = 2, Population = 19.
-11--0----
2101-0-0-1
1--1-1---2
100---0---
---------1

Generation = 3, Population = 22.
----0100-0
-21------2
-002-2-003
--1----1--
000---0-0-

Generation = 4, Population = 22.
-1101--1-1
2---0-0---
1--3------
10---1-200
1--0-0-0-1

Generation = 5, Population = 24.
-2---1----
3-111----2
--0--20003
211-02----
2-0--1-102

Generation = 6, Population = 20.
---0--0--1
-2--2000-3
----0-----
--2-13----
3010-2-2-3

Generation = 7, Population = 28.
-21---1-02
3-1---11-4
-003-200-3
2-31--02-0
4-2103----

Generation = 8, Population = 23.
-3-0-1211-
------2-0-
11---3-1--
3142-3---1
5--2-4-2-3

Generation = 9, Population = 24.
1----23--2
3--1-03-14
---3040--3
42----0-02
6--3-5---4

Generation = 10, Population = 31.
23-01--1-3
4212214-25
-10--5110-
-34-131-13
7-2------5

Generation = 11, Population = 24.
--1-----14
--2332----
-21-06--13
--5-24-2--
-033050--6

Generation = 12, Population = 31.
-32-12-125
--3-4-4---
1323171-24
-3-2351---
714-161-0-

Generation = 13, Population = 28.
24---332-6
42-3--5---
2434-82-35
4-----22-3
8253-7---6

Generation = 14, Population = 27.
--201443--
533442--2-
35---9314-
-3---5-31-
---4---207

Generation = 15, Population = 35.
2--125-4--
-445535135
-6-4-+-255
-45236242-
-25-171-18

Generation = 16, Population = 22.
----3-45-6
----6---4-
3------3--
45634-3533
8--4-8-2-9

Generation = 17, Population = 29.
---14-562-
5--57351--
4-34---455
5--4564---
9--51-131+

*** Life<FredkinCell> 6x10 ***

Generation = 0, Population = 13.
0---------
---00-0---
--00--00--
----------
---0------
--000-0---

Generation = 4, Population = 23.
----0-12--
1------12-
--10--12-2
--310-1---
0--2---2--
--222--00-

Generation = 8, Population = 26.
---4--5-0-
1---6---40
0-1220-2-2
---34-5---
0-2---34-1
2-6-----23

Generation = 12, Population = 26.
--34-0541-
3---80-4--
-65-42----
-------1-1
--4-304-3-
--86-0-3-3

*** Life<FredkinCell> 6x6 ***

Generation = 0, Population = 14.
-0----
000-0-
---0--
----0-
0-000-
0-0-0-

Generation = 4, Population = 17.
121-00
--1--1
-1---2
--1---
12-243
21----

Generation = 8, Population = 17.
5-3-12
--55-3
21311-
-3----
1-----
-12-4-

Generation = 12, Population = 14.
----5-
3---0-
33--35
--1-43
-----6
--434-

*** Life<FredkinCell> 10x5 ***

Generation = 0, Population = 19.
-00--
-----
----0
000-0
0-0--
00---
00000
-----
-0---
0-0--

Generation = 3, Population = 30.
-332-
1-202
2--03
11011
-1-2-
1102-
-----
0-2-0
-1--1
1-001

Generation = 6, Population = 23.
14---
4131-
-----
---22
22---
2--2-
-1-23
0--0-
-121-
1-11-

Generation = 9, Population = 28.
1-640
4----
-12-5
12035
35---
34---
-2-36
1-2-2
22--1
--11-

Generation = 12, Population = 22.
--75-
54---
4-218
-21--
6-22-
-7---
15--6
--3-2
-5---
-3--2

*** Life<FredkinCell> 6x6 ***

Generation = 0, Population = 19.
--00--
0--000
00----
0-00-0
0---0-
-00000

Generation = 4, Population = 15.
00--01
---0-4
-2-030
0-----
---12-
--01--

*** Life<FredkinCell> 7x7 ***

Generation = 0, Population = 15.
--0----
--0000-
--0----
-00-0--
---0-00
-0----0
------0

Generation = 2, Population = 28.
0---1--
0--0-21
0-00010
12---0-
-00012-
-011--0
---0012

Generation = 4, Population = 22.
2-10-0-
--120-1
0-2----
-2---0-
-2--120
---3--2
---0012

*** Life<FredkinCell> 10x7 ***

Generation = 0, Population = 16.
-----0-
0-----0
-----0-
0--0--0
0---0--
-----0-
-0---0-
-------
-----0-
-0-0-0-

Generation = 3, Population = 30.
---1---
001----
--0--10
1-201-0
----002
----0-2
2---23-
-2-1---
02----0
-00101-

Generation = 6, Population = 34.
-2-2001
3-100-2
-001--0
---0-1-
-------
--0-0--
-101--1
--1100-
1--2-31
11-1--1

Generation = 9, Population = 28.
0302---
-1-----
11----1
-32--21
-1---0-
-----1-
--0--51
03---11
-3--2-1
1-0--2-

Generation = 12, Population = 31.
16--31-
3--2-14
2-1-2-4
-----3-
54--11-
-0-----
43--48-
1--1--4
-40---4
1----23

Generation = 15, Population = 32.
-9-----
-22-11-
--1223-
----1-2
85202-4
4----26
432----
--21-15
---4-4-
-3-4-5-

*** Life<FredkinCell> 10x10 ***

Generation = 0, Population = 22.
0---0-----
--0-0-----
----0---0-
---0000---
-0--------
--000----0
----------
--00------
0------0-0
-----0--0-

Generation = 2, Population = 44.
------0-0-
1-00-1----
001-0-----
-11-202110
---00---0-
00-----0-0
00-----0-1
1122----01
0-1--1-0--
--0--0100-

Generation = 4, Population = 36.
101-------
---2--0-10
----------
01-2---132
-0--00-1-1
--2-2-1---
----0---1-
3--41--12-
211013----
-1------2-
