*** Life<ConwayCell> 26x3 ***

Generation = 0, Population = 22.
.**
...
.*.
..*
**.
...
...
...
*..
*..
..*
...
.*.
..*
.*.
..*
.**
...
*..
...
..*
...
...
.*.
*..
***

Generation = 6, Population = 8.
...
...
...
...
...
...
...
...
...
...
...
...
...
...
...
...
.**
.**
...
...
...
...
...
...
**.
**.

Generation = 12, Population = 8.
...
...
...
...
...
...
...
...
...
...
...
...
...
...
...
...
.**
.**
...
...
...
...
...
...
**.
**.

Generation = 18, Population = 8.
...
...
...
...
...
...
...
...
...
...
...
...
...
...
...
...
.**
.**
...
...
...
...
...
...
**.
**.

Generation = 24, Population = 8.
...
...
...
...
...
...
...
...
...
...
...
...
...
...
...
...
.**
.**
...
...
...
...
...
...
**.
**.

Generation = 30, Population = 8.
...
...
...
...
...
...
...
...
...
...
...
...
...
...
...
...
.**
.**
...
...
...
...
...
...
**.
**.

Generation = 36, Population = 8.
...
...
...
...
...
...
...
...
...
...
...
...
...
...
...
...
.**
.**
...
...
...
...
...
...
**.
**.

Generation = 42, Population = 8.
...
...
...
...
...
...
...
...
...
...
...
...
...
...
...
...
.**
.**
...
...
...
...
...
...
**.
**.

*** Life<ConwayCell> 13x3 ***

Generation = 0, Population = 9.
*..
...
..*
..*
.*.
...
...
**.
*..
...
.*.
...
*..

Generation = 119, Population = 4.
...
...
...
...
...
...
...
**.
**.
...
...
...
...

*** Life<ConwayCell> 12x2 ***

Generation = 0, Population = 11.
.*
..
..
*.
**
..
.*
*.
**
..
**
*.

*** Life<ConwayCell> 25x22 ***

Generation = 0, Population = 19.
......................
.................*....
.*....................
..............*.......
...............*......
...............*......
....................*.
*.....................
......................
...................*..
*................*....
.......*..............
...........*..........
......................
......................
......................
......................
..........*...........
..............*.......
........*.............
......................
...................*..
......................
....*.................
...*......*...........

*** Life<ConwayCell> 4x11 ***

Generation = 0, Population = 15.
..*....*..*
...***.....
*.*....*..*
.***.*.*...

Generation = 40, Population = 0.
...........
...........
...........
...........

*** Life<ConwayCell> 7x5 ***

Generation = 0, Population = 17.
.*.*.
.**.*
**...
.**.*
*....
.**..
****.

Generation = 106, Population = 0.
.....
.....
.....
.....
.....
.....
.....

*** Life<ConwayCell> 9x19 ***

Generation = 0, Population = 17.
*..................
..*...*....**......
...................
.*.................
.**................
.........*...*.....
..........*...*....
...............*..*
.*...*.*...........

Generation = 89, Population = 4.
...................
...................
...................
.**................
.**................
...................
...................
...................
...................

*** Life<ConwayCell> 21x7 ***

Generation = 0, Population = 25.
.......
.......
..*.*.*
.**....
.......
..*..*.
.......
..*..*.
*...*.*
.......
.*.....
.**....
.*.....
.......
.*.....
.....*.
..*....
....*..
*......
**..*..
..*....

*** Life<ConwayCell> 15x16 ***

Generation = 0, Population = 4.
................
................
................
................
..........*.....
................
................
................
................
................
..........*.....
................
................
...*......*.....
................

*** Life<ConwayCell> 9x27 ***

Generation = 0, Population = 3.
........*..................
...........................
........................*..
...........................
...........................
...........................
...........................
...........................
........................*..

*** Life<ConwayCell> 24x11 ***

Generation = 0, Population = 12.
...........
...........
.......*...
..*........
.........*.
...........
...........
..*........
......*.*..
...........
..........*
.....*.....
...........
...........
...*.......
...........
....*...*..
...........
...........
...........
.......*...
...........
...........
...........

Generation = 6, Population = 0.
...........
...........
...........
...........
...........
...........
...........
...........
...........
...........
...........
...........
...........
...........
...........
...........
...........
...........
...........
...........
...........
...........
...........
...........

Generation = 12, Population = 0.
...........
...........
...........
...........
...........
...........
...........
...........
...........
...........
...........
...........
...........
...........
...........
...........
...........
...........
...........
...........
...........
...........
...........
...........

Generation = 18, Population = 0.
...........
...........
...........
...........
...........
...........
...........
...........
...........
...........
...........
...........
...........
...........
...........
...........
...........
...........
...........
...........
...........
...........
...........
...........

Generation = 24, Population = 0.
...........
...........
...........
...........
...........
...........
...........
...........
...........
...........
...........
...........
...........
...........
...........
...........
...........
...........
...........
...........
...........
...........
...........
...........

Generation = 30, Population = 0.
...........
...........
...........
...........
...........
...........
...........
...........
...........
...........
...........
...........
...........
...........
...........
...........
...........
...........
...........
...........
...........
...........
...........
...........

Generation = 36, Population = 0.
...........
...........
...........
...........
...........
...........
...........
...........
...........
...........
...........
...........
...........
...........
...........
...........
...........
...........
...........
...........
...........
...........
...........
...........

Generation = 42, Population = 0.
...........
...........
...........
...........
...........
...........
...........
...........
...........
...........
...........
...........
...........
...........
...........
...........
...........
...........
...........
...........
...........
...........
...........
...........

Generation = 48, Population = 0.
...........
...........
...........
...........
...........
...........
...........
...........
...........
...........
...........
...........
...........
...........
...........
...........
...........
...........
...........
...........
...........
...........
...........
...........

Generation = 54, Population = 0.
...........
...........
...........
...........
...........
...........
...........
...........
...........
...........
...........
...........
...........
...........
...........
...........
...........
...........
...........
...........
...........
...........
...........
...........

Generation = 60, Population = 0.
...........
...........
...........
...........
...........
...........
...........
...........
...........
...........
...........
...........
...........
...........
...........
...........
...........
...........
...........
...........
...........
...........
...........
...........

Generation = 66, Population = 0.
...........
...........
...........
...........
...........
...........
...........
...........
...........
...........
...........
...........
...........
...........
...........
...........
...........
...........
...........
...........
...........
...........
...........
...........

Generation = 72, Population = 0.
...........
...........
...........
...........
...........
...........
...........
...........
...........
...........
...........
...........
...........
...........
...........
...........
...........
...........
...........
...........
...........
...........
...........
...........

Generation = 78, Population = 0.
...........
...........
...........
...........
...........
...........
...........
...........
...........
...........
...........
...........
...........
...........
...........
...........
...........
...........
...........
...........
...........
...........
...........
...........

Generation = 84, Population = 0.
...........
...........
...........
...........
...........
...........
...........
...........
...........
...........
...........
...........
...........
...........
...........
...........
...........
...........
...........
...........
...........
...........
...........
...........

Generation = 90, Population = 0.
...........
...........
...........
...........
...........
...........
...........
...........
...........
...........
...........
...........
...........
...........
...........
...........
...........
...........
...........
...........
...........
...........
...........
...........

Generation = 96, Population = 0.
...........
...........
...........
...........
...........
...........
...........
...........
...........
...........
...........
...........
...........
...........
...........
...........
...........
...........
...........
...........
...........
...........
...........
...........

Generation = 102, Population = 0.
...........
...........
...........
...........
...........
...........
...........
...........
...........
...........
...........
...........
...........
...........
...........
...........
...........
...........
...........
...........
...........
...........
...........
...........

Generation = 108, Population = 0.
...........
...........
...........
...........
...........
...........
...........
...........
...........
...........
...........
...........
...........
...........
...........
...........
...........
...........
...........
...........
...........
...........
...........
...........

Generation = 114, Population = 0.
...........
...........
...........
...........
...........
...........
...........
...........
...........
...........
...........
...........
...........
...........
...........
...........
...........
...........
...........
...........
...........
...........
...........
...........

Generation = 120, Population = 0.
...........
...........
...........
...........
...........
...........
...........
...........
...........
...........
...........
...........
...........
...........
...........
...........
...........
...........
...........
...........
...........
...........
...........
...........

Generation = 126, Population = 0.
...........
...........
...........
...........
...........
...........
...........
...........
...........
...........
...........
...........
...........
...........
...........
...........
...........
...........
...........
...........
...........
...........
...........
...........

Generation = 132, Population = 0.
...........
...........
...........
...........
...........
...........
...........
...........
...........
...........
...........
...........
...........
...........
...........
...........
...........
...........
...........
...........
...........
...........
...........
...........

Generation = 138, Population = 0.
...........
...........
...........
...........
...........
...........
...........
...........
...........
...........
...........
...........
...........
...........
...........
...........
...........
...........
...........
...........
...........
...........
...........
...........

Generation = 144, Population = 0.
...........
...........
...........
...........
...........
...........
...........
...........
...........
...........
...........
...........
...........
...........
...........
...........
...........
...........
...........
...........
...........
...........
...........
...........

Generation = 150, Population = 0.
...........
...........
...........
...........
...........
...........
...........
...........
...........
...........
...........
...........
...........
...........
...........
...........
...........
...........
...........
...........
...........
...........
...........
...........

Generation = 156, Population = 0.
...........
...........
...........
...........
...........
...........
...........
...........
...........
...........
...........
...........
...........
...........
...........
...........
...........
...........
...........
...........
...........
...........
...........
...........

Generation = 162, Population = 0.
...........
...........
...........
...........
...........
...........
...........
...........
...........
...........
...........
...........
...........
...........
...........
...........
...........
...........
...........
...........
...........
...........
...........
...........

Generation = 168, Population = 0.
...........
...........
...........
...........
...........
...........
...........
...........
...........
...........
...........
...........
...........
...........
...........
...........
...........
...........
...........
...........
...........
...........
...........
...........

Generation = 174, Population = 0.
...........
...........
...........
...........
...........
...........
...........
...........
...........
...........
...........
...........
...........
...........
...........
...........
...........
...........
...........
...........
...........
...........
...........
...........

Generation = 180, Population = 0.
...........
...........
...........
...........
...........
...........
...........
...........
...........
...........
...........
...........
...........
...........
...........
...........
...........
...........
...........
...........
...........
...........
...........
...........

*** Life<ConwayCell> 25x24 ***

Generation = 0, Population = 21.
.*..............*.......
............*....*......
.................*......
........................
..............*.........
......................*.
................*.......
........................
........*............*..
.*......................
.................*......
........................
........................
........................
........................
....................*...
........................
.....*...*..............
........................
............*.....*.....
........................
........................
*.....*............*.*..
........................
........................

*** Life<ConwayCell> 4x15 ***

Generation = 0, Population = 20.
.**..**...*....
***.**.*.*.....
...**..*..*.*.*
..........**...

*** Life<ConwayCell> 19x27 ***

Generation = 0, Population = 20.
....*............*.........
..*........................
...........................
...........................
........*..................
...................*.......
...........................
.............*.............
.................*.........
..*..*.....................
.................*.........
............*..............
..*........................
.....*..*..................
.......*..*................
.........................*.
................*..........
..*..*.....................
...........................

*** Life<ConwayCell> 29x16 ***

Generation = 0, Population = 10.
.*..............
................
..*.....*.......
................
...........*....
................
................
................
................
................
................
................
................
................
................
........*.......
................
...*............
................
...........*....
................
................
................
................
................
................
................
.....*.....*....
...*............

*** Life<ConwayCell> 6x30 ***

Generation = 0, Population = 21.
..*..........*......*...*.....
.............*........*.......
...*..........................
.*..........*................*
....*......*.....*.*..........
..*....**.....*..*....*.....*.

*** Life<ConwayCell> 2x14 ***

Generation = 0, Population = 15.
*..*.***..***.
.*..***...***.

Generation = 36, Population = 0.
..............
..............

*** Life<ConwayCell> 18x3 ***

Generation = 0, Population = 23.
.*.
***
**.
.**
.*.
*.*
.*.
***
...
*..
..*
**.
.**
...
...
.*.
.*.
...

Generation = 107, Population = 4.
.**
.**
...
...
...
...
...
...
...
...
...
...
...
...
...
...
...
...

*** Life<ConwayCell> 1x1 ***

Generation = 0, Population = 1.
*

Generation = 23, Population = 0.
.

Generation = 46, Population = 0.
.

*** Life<ConwayCell> 10x19 ***

Generation = 0, Population = 1.
...............*...
...................
...................
...................
...................
...................
...................
...................
...................
...................

*** Life<ConwayCell> 15x15 ***

Generation = 0, Population = 26.
.....**........
...*.........**
............*.*
............*..
....*..........
.*....*...*....
...*...........
...............
...........*..*
.......**.*....
......*........
.......*.......
....*..........
..*....*.......
*..........*..*

Generation = 8, Population = 5.
...............
.............**
............*.*
.............*.
...............
...............
...............
...............
...............
...............
...............
...............
...............
...............
...............

Generation = 16, Population = 5.
...............
.............**
............*.*
.............*.
...............
...............
...............
...............
...............
...............
...............
...............
...............
...............
...............

Generation = 24, Population = 5.
...............
.............**
............*.*
.............*.
...............
...............
...............
...............
...............
...............
...............
...............
...............
...............
...............

*** Life<ConwayCell> 25x5 ***

Generation = 0, Population = 18.
.....
.....
.....
.....
.....
*....
.....
.*...
.....
.*...
*...*
...**
.....
.....
*...*
..*..
.....
..*.*
...*.
.....
.*...
.....
...*.
..*.*
...*.

*** Life<ConwayCell> 30x8 ***

Generation = 0, Population = 28.
...*....
........
*.......
*.......
.....***
....*..*
.....**.
........
..*...*.
.*..*...
........
........
..*.....
.*......
........
........
..*.....
........
.....*..
......*.
........
....*...
..*....*
.*......
*.*.....
........
......*.
........
........
.**.....

*** Life<ConwayCell> 24x24 ***

Generation = 0, Population = 22.
................*....*..
....*...................
..............*.......*.
........................
*.......................
.........*..............
...*.......*............
........................
......*.................
......*.................
.......*................
.....*..................
.....*..................
..........*.............
........................
......*.................
...*....................
.......*.........*......
........................
...........*............
................*.......
........................
.....................*..
........................
